{"space_templates":[{"space_template_sid":"1-island-2266","selectable_by_non_admins":false,"activity_name":"1 island","selectable_for_experiences":false,"description":"Island","desktop_capacity":null,"mobile_capacity":null,"disabled_for_public_activities":false,"admin":false,"created_at":"2021-01-25T02:54:39.649-08:00","updated_at":"2021-01-25T04:19:27.528-08:00","tutorial":null,"is_featured":null,"space_template_id":"1657966603137974908","recording_id":"","asset_bundle_scenes":[{"aasm_state":"active","name":"Autogenerated for SpaceTemplate 1657966603137974908","created_at":"2021-01-25T02:54:39.704-08:00","updated_at":"2021-01-25T04:19:27.526-08:00","asset_bundle_scene_id":"1657966603532239487","user_id":"1586416073626878132","asset_bundles":[{"game_engine":"unity","game_engine_version":20194,"platform":"android","url":"https://cdn-content-ingress.altvr.com/environments/9b/2a/9b2ab4a8e5eae5c1b0f7f907151deae2-template-android","description":null,"aasm_state":"active","created_at":"2021-01-25T04:19:27.450-08:00","updated_at":"2021-01-25T04:19:27.450-08:00","layout":null,"crc":"3683039284","client_cache_key":"9b2ab4a8e5eae5c1b0f7f907151deae2","name":"template","stereo_render_mode":null,"uncompressed":null,"asset_bundle_id":"1658009282672591272","user_id":"1586416073626878132","asset_bundle_scene_id":"1657966603532239487","avatar_id":""},{"game_engine":"unity","game_engine_version":20194,"platform":"pc","url":"https://cdn-content-ingress.altvr.com/environments/9b/2a/9b2ab4a8e5eae5c1b0f7f907151deae2-template-pc","description":null,"aasm_state":"active","created_at":"2021-01-25T04:19:27.054-08:00","updated_at":"2021-01-25T04:19:27.054-08:00","layout":null,"crc":"2906600311","client_cache_key":"9b2ab4a8e5eae5c1b0f7f907151deae2","name":"template","stereo_render_mode":null,"uncompressed":null,"asset_bundle_id":"1658009279258427811","user_id":"1586416073626878132","asset_bundle_scene_id":"1657966603532239487","avatar_id":""}]}],"image_large":"https://cdn-content-ingress.altvr.com/defaults/default-560x315.jpg","image_medium":"https://cdn-content-ingress.altvr.com/defaults/default-560x315.jpg","image_small":"https://cdn-content-ingress.altvr.com/defaults/default-560x315.jpg","image_thumbnail":"https://cdn-content-ingress.altvr.com/defaults/default-560x315.jpg","banner_image_large":"https://cdn-content-ingress.altvr.com/defaults/default-1920x576.jpg","banner_image_medium":"https://cdn-content-ingress.altvr.com/defaults/default-1920x576.jpg","banner_image_small":"https://cdn-content-ingress.altvr.com/defaults/default-1920x576.jpg","name":"1 island"},{"space_template_sid":"1-lake-and-forest-2686","selectable_by_non_admins":false,"activity_name":"1 lake and forest","selectable_for_experiences":false,"description":"lake and forest","desktop_capacity":null,"mobile_capacity":null,"disabled_for_public_activities":false,"admin":false,"created_at":"2021-01-10T09:21:15.775-08:00","updated_at":"2021-01-14T10:35:44.690-08:00","tutorial":null,"is_featured":null,"space_template_id":"1647289550470381967","recording_id":"","asset_bundle_scenes":[{"aasm_state":"active","name":"Autogenerated for SpaceTemplate 1647289550470381967","created_at":"2021-01-10T09:21:15.839-08:00","updated_at":"2021-01-14T10:35:44.685-08:00","asset_bundle_scene_id":"1647289550738817426","user_id":"1586416073626878132","asset_bundles":[{"game_engine":"unity","game_engine_version":20194,"platform":"android","url":"https://cdn-content-ingress.altvr.com/environments/3c/19/3c199762b23b0a0c2a3141f09e3734b0-template-android","description":null,"aasm_state":"active","created_at":"2021-01-10T11:45:18.224-08:00","updated_at":"2021-01-14T10:35:44.673-08:00","layout":null,"crc":"3627433179","client_cache_key":"3c199762b23b0a0c2a3141f09e3734b0","name":"template","stereo_render_mode":null,"uncompressed":null,"asset_bundle_id":"1647362048411042529","user_id":"1586416073626878132","asset_bundle_scene_id":"1647289550738817426","avatar_id":""},{"game_engine":"unity","game_engine_version":20194,"platform":"pc","url":"https://cdn-content-ingress.altvr.com/environments/ae/52/ae52fef232781962e69ee2f4643a1e76-template-pc","description":null,"aasm_state":"active","created_at":"2021-01-10T10:11:29.077-08:00","updated_at":"2021-01-14T10:35:44.067-08:00","layout":null,"crc":"1638525547","client_cache_key":"ae52fef232781962e69ee2f4643a1e76","name":"template","stereo_render_mode":null,"uncompressed":null,"asset_bundle_id":"1647314827669930836","user_id":"1586416073626878132","asset_bundle_scene_id":"1647289550738817426","avatar_id":""}]}],"image_large":"https://cdn-content-ingress.altvr.com/defaults/default-560x315.jpg","image_medium":"https://cdn-content-ingress.altvr.com/defaults/default-560x315.jpg","image_small":"https://cdn-content-ingress.altvr.com/defaults/default-560x315.jpg","image_thumbnail":"https://cdn-content-ingress.altvr.com/defaults/default-560x315.jpg","banner_image_large":"https://cdn-content-ingress.altvr.com/defaults/default-1920x576.jpg","banner_image_medium":"https://cdn-content-ingress.altvr.com/defaults/default-1920x576.jpg","banner_image_small":"https://cdn-content-ingress.altvr.com/defaults/default-1920x576.jpg","name":"1 lake and forest"},{"space_template_sid":"2-second-unity-house-2915","selectable_by_non_admins":false,"activity_name":"2 second unity house ","selectable_for_experiences":false,"description":"Second unity house","desktop_capacity":null,"mobile_capacity":null,"disabled_for_public_activities":false,"admin":false,"created_at":"2021-01-17T01:31:16.009-08:00","updated_at":"2021-02-14T04:53:37.564-08:00","tutorial":null,"is_featured":null,"space_template_id":"1652126423797727528","recording_id":"","asset_bundle_scenes":[{"aasm_state":"active","name":"Autogenerated for SpaceTemplate 1652126423797727528","created_at":"2021-01-17T01:31:16.059-08:00","updated_at":"2021-02-14T04:53:37.562-08:00","asset_bundle_scene_id":"1652126424066162987","user_id":"1586416073626878132","asset_bundles":[{"game_engine":"unity","game_engine_version":20194,"platform":"android","url":"https://cdn-content-ingress.altvr.com/environments/e5/8a/e58a5d2ac220cf2c290575bcfd5a8ba1-template-android","description":null,"aasm_state":"active","created_at":"2021-02-14T04:53:37.491-08:00","updated_at":"2021-02-14T04:53:37.491-08:00","layout":null,"crc":"1336025881","client_cache_key":"e58a5d2ac220cf2c290575bcfd5a8ba1","name":"template","stereo_render_mode":null,"uncompressed":null,"asset_bundle_id":"1672521994278535228","user_id":"1586416073626878132","asset_bundle_scene_id":"1652126424066162987","avatar_id":""},{"game_engine":"unity","game_engine_version":20194,"platform":"pc","url":"https://cdn-content-ingress.altvr.com/environments/e5/8a/e58a5d2ac220cf2c290575bcfd5a8ba1-template-pc","description":null,"aasm_state":"active","created_at":"2021-02-14T04:53:35.177-08:00","updated_at":"2021-02-14T04:53:35.177-08:00","layout":null,"crc":"2688183918","client_cache_key":"e58a5d2ac220cf2c290575bcfd5a8ba1","name":"template","stereo_render_mode":null,"uncompressed":null,"asset_bundle_id":"1672521974875684915","user_id":"1586416073626878132","asset_bundle_scene_id":"1652126424066162987","avatar_id":""}]}],"image_large":"https://cdn-content-ingress.altvr.com/defaults/default-560x315.jpg","image_medium":"https://cdn-content-ingress.altvr.com/defaults/default-560x315.jpg","image_small":"https://cdn-content-ingress.altvr.com/defaults/default-560x315.jpg","image_thumbnail":"https://cdn-content-ingress.altvr.com/defaults/default-560x315.jpg","banner_image_large":"https://cdn-content-ingress.altvr.com/defaults/default-1920x576.jpg","banner_image_medium":"https://cdn-content-ingress.altvr.com/defaults/default-1920x576.jpg","banner_image_small":"https://cdn-content-ingress.altvr.com/defaults/default-1920x576.jpg","name":"2 second unity house "},{"space_template_sid":"archetype-diagnostic-2-3408","selectable_by_non_admins":false,"activity_name":"Archetype diagnostic 2","selectable_for_experiences":false,"description":"Second upload","desktop_capacity":null,"mobile_capacity":null,"disabled_for_public_activities":false,"admin":false,"created_at":"2021-03-11T00:23:01.360-08:00","updated_at":"2021-03-11T07:43:39.267-08:00","tutorial":null,"is_featured":null,"space_template_id":"1690505189120803736","recording_id":"","asset_bundle_scenes":[{"aasm_state":"active","name":"Autogenerated for SpaceTemplate 1690505189120803736","created_at":"2021-03-11T00:23:01.412-08:00","updated_at":"2021-03-11T07:43:39.261-08:00","asset_bundle_scene_id":"1690505189380850587","user_id":"1586416073626878132","asset_bundles":[{"game_engine":"unity","game_engine_version":20194,"platform":"android","url":"https://cdn-content-ingress.altvr.com/environments/00/14/0014835f49e2544db7a6ab24ae0b5a10-template-android","description":null,"aasm_state":"active","created_at":"2021-03-11T07:43:39.003-08:00","updated_at":"2021-03-11T07:43:39.003-08:00","layout":null,"crc":"2472569017","client_cache_key":"0014835f49e2544db7a6ab24ae0b5a10","name":"template","stereo_render_mode":null,"uncompressed":null,"asset_bundle_id":"1690726964026934223","user_id":"1586416073626878132","asset_bundle_scene_id":"1690505189380850587","avatar_id":""},{"game_engine":"unity","game_engine_version":20194,"platform":"pc","url":"https://cdn-content-ingress.altvr.com/environments/04/4c/044c9073c52effed02730a7ffaa669e5-template-pc","description":null,"aasm_state":"active","created_at":"2021-03-11T07:40:09.579-08:00","updated_at":"2021-03-11T07:40:09.579-08:00","layout":null,"crc":"83894463","client_cache_key":"044c9073c52effed02730a7ffaa669e5","name":"template","stereo_render_mode":null,"uncompressed":null,"asset_bundle_id":"1690725207242702873","user_id":"1586416073626878132","asset_bundle_scene_id":"1690505189380850587","avatar_id":""}]}],"image_large":"https://cdn-content-ingress.altvr.com/defaults/default-560x315.jpg","image_medium":"https://cdn-content-ingress.altvr.com/defaults/default-560x315.jpg","image_small":"https://cdn-content-ingress.altvr.com/defaults/default-560x315.jpg","image_thumbnail":"https://cdn-content-ingress.altvr.com/defaults/default-560x315.jpg","banner_image_large":"https://cdn-content-ingress.altvr.com/defaults/default-1920x576.jpg","banner_image_medium":"https://cdn-content-ingress.altvr.com/defaults/default-1920x576.jpg","banner_image_small":"https://cdn-content-ingress.altvr.com/defaults/default-1920x576.jpg","name":"Archetype diagnostic 2"},{"space_template_sid":"3-house-in-hill-1784","selectable_by_non_admins":false,"activity_name":"Bad colliders 3 house in hill","selectable_for_experiences":false,"description":"House from unity","desktop_capacity":null,"mobile_capacity":null,"disabled_for_public_activities":false,"admin":false,"created_at":"2021-01-18T01:26:07.530-08:00","updated_at":"2021-01-23T02:39:10.005-08:00","tutorial":null,"is_featured":null,"space_template_id":"1652848611802742874","recording_id":"","asset_bundle_scenes":[{"aasm_state":"active","name":"Autogenerated for SpaceTemplate 1652848611802742874","created_at":"2021-01-18T01:26:07.580-08:00","updated_at":"2021-01-23T00:41:40.309-08:00","asset_bundle_scene_id":"1652848612062789725","user_id":"1586416073626878132","asset_bundles":[{"game_engine":"unity","game_engine_version":20194,"platform":"android","url":"https://cdn-content-ingress.altvr.com/environments/27/ca/27cabf4ec8dd80a69714def12c240254-template-android","description":null,"aasm_state":"active","created_at":"2021-01-23T00:41:39.970-08:00","updated_at":"2021-01-23T00:41:39.970-08:00","layout":null,"crc":"3946254414","client_cache_key":"27cabf4ec8dd80a69714def12c240254","name":"template","stereo_render_mode":null,"uncompressed":null,"asset_bundle_id":"1656450113125483329","user_id":"1586416073626878132","asset_bundle_scene_id":"1652848612062789725","avatar_id":""},{"game_engine":"unity","game_engine_version":20194,"platform":"pc","url":"https://cdn-content-ingress.altvr.com/environments/0f/35/0f35989f68c046433bbcfc82dc4c6a45-template-pc","description":null,"aasm_state":"active","created_at":"2021-01-19T23:50:44.455-08:00","updated_at":"2021-01-19T23:50:44.455-08:00","layout":null,"crc":"2251850917","client_cache_key":"0f35989f68c046433bbcfc82dc4c6a45","name":"template","stereo_render_mode":null,"uncompressed":null,"asset_bundle_id":"1654250154498195928","user_id":"1586416073626878132","asset_bundle_scene_id":"1652848612062789725","avatar_id":""}]}],"image_large":"https://cdn-content-ingress.altvr.com/defaults/default-560x315.jpg","image_medium":"https://cdn-content-ingress.altvr.com/defaults/default-560x315.jpg","image_small":"https://cdn-content-ingress.altvr.com/defaults/default-560x315.jpg","image_thumbnail":"https://cdn-content-ingress.altvr.com/defaults/default-560x315.jpg","banner_image_large":"https://cdn-content-ingress.altvr.com/defaults/default-1920x576.jpg","banner_image_medium":"https://cdn-content-ingress.altvr.com/defaults/default-1920x576.jpg","banner_image_small":"https://cdn-content-ingress.altvr.com/defaults/default-1920x576.jpg","name":"Bad colliders 3 house in hill"},{"space_template_sid":"ckakras-circuit-5546","selectable_by_non_admins":false,"activity_name":"Ckakras circuit","selectable_for_experiences":false,"description":"Ckakras circuit","desktop_capacity":null,"mobile_capacity":null,"disabled_for_public_activities":false,"admin":false,"created_at":"2021-03-04T05:24:37.948-08:00","updated_at":"2021-03-08T00:02:14.340-08:00","tutorial":null,"is_featured":null,"space_template_id":"1685583564126552448","recording_id":"","asset_bundle_scenes":[{"aasm_state":"active","name":"Autogenerated for SpaceTemplate 1685583564126552448","created_at":"2021-03-04T05:24:38.005-08:00","updated_at":"2021-03-08T00:02:14.338-08:00","asset_bundle_scene_id":"1685583564520817027","user_id":"1586416073626878132","asset_bundles":[{"game_engine":"unity","game_engine_version":20194,"platform":"android","url":"https://cdn-content-ingress.altvr.com/environments/e6/fb/e6fb56e5dcd9f88df542619170db1b73-template-android","description":null,"aasm_state":"active","created_at":"2021-03-08T00:02:14.213-08:00","updated_at":"2021-03-08T00:02:14.213-08:00","layout":null,"crc":"1086252614","client_cache_key":"e6fb56e5dcd9f88df542619170db1b73","name":"template","stereo_render_mode":null,"uncompressed":null,"asset_bundle_id":"1688320399974072502","user_id":"1586416073626878132","asset_bundle_scene_id":"1685583564520817027","avatar_id":""},{"game_engine":"unity","game_engine_version":20194,"platform":"pc","url":"https://cdn-content-ingress.altvr.com/environments/e6/fb/e6fb56e5dcd9f88df542619170db1b73-template-pc","description":null,"aasm_state":"active","created_at":"2021-03-08T00:02:13.582-08:00","updated_at":"2021-03-08T00:02:13.582-08:00","layout":null,"crc":"1447029414","client_cache_key":"e6fb56e5dcd9f88df542619170db1b73","name":"template","stereo_render_mode":null,"uncompressed":null,"asset_bundle_id":"1688320394596974769","user_id":"1586416073626878132","asset_bundle_scene_id":"1685583564520817027","avatar_id":""}]}],"image_large":"https://cdn-content-ingress.altvr.com/defaults/default-560x315.jpg","image_medium":"https://cdn-content-ingress.altvr.com/defaults/default-560x315.jpg","image_small":"https://cdn-content-ingress.altvr.com/defaults/default-560x315.jpg","image_thumbnail":"https://cdn-content-ingress.altvr.com/defaults/default-560x315.jpg","banner_image_large":"https://cdn-content-ingress.altvr.com/defaults/default-1920x576.jpg","banner_image_medium":"https://cdn-content-ingress.altvr.com/defaults/default-1920x576.jpg","banner_image_small":"https://cdn-content-ingress.altvr.com/defaults/default-1920x576.jpg","name":"Ckakras circuit"},{"space_template_sid":"event-19-02-2021-vr-em-education---training-608","selectable_by_non_admins":false,"activity_name":"Event 19.02.2021-VR EM Education & Training","selectable_for_experiences":false,"description":"Event 19.02.2021 -VR Emergency Medicine Education & Training","desktop_capacity":null,"mobile_capacity":null,"disabled_for_public_activities":false,"admin":false,"created_at":"2021-04-14T04:15:39.476-07:00","updated_at":"2021-04-14T04:15:40.203-07:00","tutorial":null,"is_featured":null,"space_template_id":"1715234458560365251","recording_id":"","asset_bundle_scenes":[{"aasm_state":"active","name":"Autogenerated for SpaceTemplate 1715234458560365251","created_at":"2021-04-14T04:15:40.100-07:00","updated_at":"2021-04-14T04:15:40.100-07:00","asset_bundle_scene_id":"1715234459223065286","user_id":"1586416073626878132","asset_bundles":[]}],"image_large":"https://cdn-content-ingress.altvr.com/defaults/default-560x315.jpg","image_medium":"https://cdn-content-ingress.altvr.com/defaults/default-560x315.jpg","image_small":"https://cdn-content-ingress.altvr.com/defaults/default-560x315.jpg","image_thumbnail":"https://cdn-content-ingress.altvr.com/defaults/default-560x315.jpg","banner_image_large":"https://cdn-content-ingress.altvr.com/defaults/default-1920x576.jpg","banner_image_medium":"https://cdn-content-ingress.altvr.com/defaults/default-1920x576.jpg","banner_image_small":"https://cdn-content-ingress.altvr.com/defaults/default-1920x576.jpg","name":"Event 19.02.2021-VR EM Education & Training"},{"space_template_sid":"the-archetypes-9475","selectable_by_non_admins":false,"activity_name":"The Archetypes","selectable_for_experiences":false,"description":"The archetypes","desktop_capacity":null,"mobile_capacity":null,"disabled_for_public_activities":false,"admin":false,"created_at":"2021-03-06T07:37:32.838-08:00","updated_at":"2021-03-06T09:05:02.560-08:00","tutorial":null,"is_featured":null,"space_template_id":"1687100013823394432","recording_id":"","asset_bundle_scenes":[{"aasm_state":"active","name":"Autogenerated for SpaceTemplate 1687100013823394432","created_at":"2021-03-06T07:37:32.887-08:00","updated_at":"2021-03-06T09:05:02.558-08:00","asset_bundle_scene_id":"1687100014083441284","user_id":"1586416073626878132","asset_bundles":[{"game_engine":"unity","game_engine_version":20194,"platform":"android","url":"https://cdn-content-ingress.altvr.com/environments/23/ae/23ae1a1ebbf981c6a3f9986f318b88e8-template-android","description":null,"aasm_state":"active","created_at":"2021-03-06T09:05:02.487-08:00","updated_at":"2021-03-06T09:05:02.487-08:00","layout":null,"crc":"1058912058","client_cache_key":"23ae1a1ebbf981c6a3f9986f318b88e8","name":"template","stereo_render_mode":null,"uncompressed":null,"asset_bundle_id":"1687144051029049875","user_id":"1586416073626878132","asset_bundle_scene_id":"1687100014083441284","avatar_id":""},{"game_engine":"unity","game_engine_version":20194,"platform":"pc","url":"https://cdn-content-ingress.altvr.com/environments/23/ae/23ae1a1ebbf981c6a3f9986f318b88e8-template-pc","description":null,"aasm_state":"active","created_at":"2021-03-06T09:05:02.261-08:00","updated_at":"2021-03-06T09:05:02.261-08:00","layout":null,"crc":"2433693468","client_cache_key":"23ae1a1ebbf981c6a3f9986f318b88e8","name":"template","stereo_render_mode":null,"uncompressed":null,"asset_bundle_id":"1687144049066115600","user_id":"1586416073626878132","asset_bundle_scene_id":"1687100014083441284","avatar_id":""}]}],"image_large":"https://cdn-content-ingress.altvr.com/defaults/default-560x315.jpg","image_medium":"https://cdn-content-ingress.altvr.com/defaults/default-560x315.jpg","image_small":"https://cdn-content-ingress.altvr.com/defaults/default-560x315.jpg","image_thumbnail":"https://cdn-content-ingress.altvr.com/defaults/default-560x315.jpg","banner_image_large":"https://cdn-content-ingress.altvr.com/defaults/default-1920x576.jpg","banner_image_medium":"https://cdn-content-ingress.altvr.com/defaults/default-1920x576.jpg","banner_image_small":"https://cdn-content-ingress.altvr.com/defaults/default-1920x576.jpg","name":"The Archetypes"},{"space_template_sid":"xr-ar-medical-and-health-team-presentation-29-feb-2021-4818","selectable_by_non_admins":false,"activity_name":"XR-AR Medical and Health Team presentation 29-feb-2021","selectable_for_experiences":false,"description":"XR-AR Medical and Health Team presentation 29-feb-2021","desktop_capacity":null,"mobile_capacity":null,"disabled_for_public_activities":false,"admin":false,"created_at":"2021-04-14T00:55:00.393-07:00","updated_at":"2021-04-14T01:16:15.953-07:00","tutorial":null,"is_featured":null,"space_template_id":"1715133463075487954","recording_id":"","asset_bundle_scenes":[{"aasm_state":"active","name":"Autogenerated for SpaceTemplate 1715133463075487954","created_at":"2021-04-14T00:55:00.444-07:00","updated_at":"2021-04-14T01:16:15.947-07:00","asset_bundle_scene_id":"1715133463335534807","user_id":"1586416073626878132","asset_bundles":[{"game_engine":"unity","game_engine_version":20194,"platform":"mac","url":"https://cdn-content-ingress.altvr.com/environments/49/c3/49c35173e58547cb7a7a293269ba239e-template-mac","description":null,"aasm_state":"active","created_at":"2021-04-14T01:16:15.906-07:00","updated_at":"2021-04-14T01:16:15.906-07:00","layout":null,"crc":"2688353208","client_cache_key":"49c35173e58547cb7a7a293269ba239e","name":"template","stereo_render_mode":null,"uncompressed":null,"asset_bundle_id":"1715144162694660918","user_id":"1586416073626878132","asset_bundle_scene_id":"1715133463335534807","avatar_id":""},{"game_engine":"unity","game_engine_version":20194,"platform":"pc","url":"https://cdn-content-ingress.altvr.com/environments/75/3f/753f83513230d1367c812e91fb816e01-template-pc","description":null,"aasm_state":"active","created_at":"2021-04-14T01:15:58.716-07:00","updated_at":"2021-04-14T01:15:58.716-07:00","layout":null,"crc":"480353077","client_cache_key":"753f83513230d1367c812e91fb816e01","name":"template","stereo_render_mode":null,"uncompressed":null,"asset_bundle_id":"1715144018377048868","user_id":"1586416073626878132","asset_bundle_scene_id":"1715133463335534807","avatar_id":""},{"game_engine":"unity","game_engine_version":20194,"platform":"android","url":"https://cdn-content-ingress.altvr.com/environments/7c/95/7c95a71012719631ad55bd7c284547e9-template-android","description":null,"aasm_state":"active","created_at":"2021-04-14T01:15:31.319-07:00","updated_at":"2021-04-14T01:15:31.319-07:00","layout":null,"crc":"2321125047","client_cache_key":"7c95a71012719631ad55bd7c284547e9","name":"template","stereo_render_mode":null,"uncompressed":null,"asset_bundle_id":"1715143788587909832","user_id":"1586416073626878132","asset_bundle_scene_id":"1715133463335534807","avatar_id":""}]}],"image_large":"https://cdn-content-ingress.altvr.com/defaults/default-560x315.jpg","image_medium":"https://cdn-content-ingress.altvr.com/defaults/default-560x315.jpg","image_small":"https://cdn-content-ingress.altvr.com/defaults/default-560x315.jpg","image_thumbnail":"https://cdn-content-ingress.altvr.com/defaults/default-560x315.jpg","banner_image_large":"https://cdn-content-ingress.altvr.com/defaults/default-1920x576.jpg","banner_image_medium":"https://cdn-content-ingress.altvr.com/defaults/default-1920x576.jpg","banner_image_small":"https://cdn-content-ingress.altvr.com/defaults/default-1920x576.jpg","name":"XR-AR Medical and Health Team presentation 29-feb-2021"}],"pagination":{"page":2,"pages":2,"count":34}}